2023-07-25T09:53:26+00:00 CRITICAL require_once(): Failed opening required '/home/bincomdevcenter/public_html/wp-content/themes/consultio/elementor/core/widgets/class-widget-ct-testimonial-grid.php' (include_path='.:/opt/cpanel/ea-php74/root/usr/share/pear') in /home/bincomdevcenter/public_html/wp-content/plugins/case-theme-core/inc/helpers/widget.php on line 99

2023-07-25T09:53:26+00:00 CRITICAL require_once(): Failed opening required '/home/bincomdevcenter/public_html/wp-content/themes/consultio/elementor/core/widgets/class-widget-ct-testimonial-grid.php' (include_path='.:/opt/cpanel/ea-php74/root/usr/share/pear') in /home/bincomdevcenter/public_html/wp-content/plugins/case-theme-core/inc/helpers/widget.php on line 99

2023-07-25T13:41:47+00:00 CRITICAL require_once(): Failed opening required '/home/bincomdevcenter/public_html/wp-content/themes/consultio/elementor/core/widgets/class-widget-ct-ctf7.php' (include_path='.:/opt/cpanel/ea-php74/root/usr/share/pear') in /home/bincomdevcenter/public_html/wp-content/plugins/case-theme-core/inc/helpers/widget.php on line 99

